1 3333 217
3333 6665 262
6665 9997 260
9997 13329 276
13329 16661 271
16661 19993 279
19993 23325 269
23325 26657 308
26657 29989 272
29989 33321 285
33321 36653 324
36653 39985 306
39985 43317 288
43317 46649 314
46649 49981 314
49981 53313 340
53313 56645 322
56645 59977 304
59977 63309 335
63309 66641 330
66641 69973 312
69973 73305 325
73305 76637 325
76637 79969 351
79969 83301 320
83301 86633 320
86633 89965 333
89965 93297 333
93297 96629 328
96629 99961 328
99961 103293 341
103293 106625 354
106625 109957 323
109957 113289 323
113289 116621 349
116621 119953 336
119953 123285 336
123285 126617 331
126617 129949 331
129949 133281 344
133281 136613 344
136613 139945 331
139945 143277 375
143277 146609 357
146609 149941 326
149941 153273 370
153273 156605 383
156605 159937 352
159937 163269 370
163269 166601 352
166601 169933 334
169933 173265 334
173265 176597 347
176597 179929 347
179929 183261 365
183261 186593 329
186593 189925 360
189925 193257 347
193257 196589 360
196589 199921 329
199921 203253 342
203253 206585 355
206585 209917 373
209917 213249 355
213249 216581 386
216581 219913 355
219913 223245 355
223245 226577 368
226577 229909 368
229909 233241 443
233241 236573 381
236573 239905 350
239905 243237 368
243237 246569 337
246569 249901 350
249901 253233 332
253233 256565 363
256565 259897 345
259897 263229 407
263229 266561 332
266561 269893 345
269893 273225 407
273225 276557 358
276557 279889 389
279889 283221 358
283221 286553 376
286553 289885 389
289885 293217 358
293217 296549 358
296549 299881 371
299881 303213 371
303213 306545 340
306545 309877 371
309877 313209 384
313209 316541 340
316541 319873 353
319873 323205 371
323205 326537 384
326537 329869 353
329869 333201 353
333201 336533 366
336533 339865 366
339865 343197 366
343197 346529 441
346529 349861 366
349861 353193 379
353193 356525 379
356525 359857 379
359857 363189 410
363189 366521 361
366521 369853 361
369853 373185 392
373185 376517 361
376517 379849 423
379849 383181 379
383181 386513 348
386513 389845 436
389845 393177 361
393177 396509 405
396509 399841 374
399841 403173 387
403173 406505 405
406505 409837 343
409837 413169 449
413169 416501 387
416501 419833 343
419833 423165 356
423165 426497 418
426497 429829 374
429829 433161 387
433161 436493 356
436493 439825 400
439825 443157 356
443157 446489 338
446489 449821 369
449821 453153 387
453153 456485 369
456485 459817 356
459817 463149 444
463149 466481 369
466481 469813 413
469813 473145 338
473145 476477 382
476477 479809 382
479809 483141 413
483141 486473 338
486473 489805 382
489805 493137 426
493137 496469 395
496469 499801 395
499801 503133 426
503133 506465 364
506465 509797 382
509797 513129 470
513129 516461 395
516461 519793 439
519793 523125 364
523125 526457 408
526457 529789 377
529789 533121 377
533121 536453 377
536453 539785 377
539785 543117 408
543117 546449 359
546449 549781 452
549781 553113 377
553113 556445 421
556445 559777 346
559777 563109 359
563109 566441 421
566441 569773 359
569773 573105 377
573105 576437 359
576437 579769 390
579769 583101 328
583101 586433 434
586433 589765 328
589765 593097 403
593097 596429 372
596429 599761 372
599761 603093 403
603093 606425 372
606425 609757 403
609757 613089 354
613089 616421 447
616421 619753 372
619753 623085 372
623085 626417 509
626417 629749 341
629749 633081 385
633081 636413 416
636413 639745 354
639745 643077 416
643077 646409 323
646409 649741 385
649741 653073 354
653073 656405 385
656405 659737 429
659737 663069 323
663069 666401 442
666401 669733 367
669733 673065 367
673065 676397 385
676397 679729 380
679729 683061 367
683061 686393 380
686393 689725 398
689725 693057 442
693057 696389 367
696389 699721 367
699721 703053 411
703053 706385 504
706385 709717 349
709717 713049 411
713049 716381 380
716381 719713 349
719713 723045 411
723045 726377 362
726377 729709 362
729709 733041 380
733041 736373 424
736373 739705 424
739705 743037 393
743037 746369 349
746369 749701 393
749701 753033 362
753033 756365 424
756365 759697 362
759697 763029 380
763029 766361 375
766361 769693 468
769693 773025 393
773025 776357 437
776357 779689 437
779689 783021 362
783021 786353 375
786353 789685 406
789685 793017 437
793017 796349 468
796349 799681 375
799681 803013 406
803013 806345 375
806345 809677 406
809677 813009 406
813009 816341 375
816341 819673 450
819673 823005 450
823005 826337 375
826337 829669 419
829669 833001 419
833001 836333 357
836333 839665 525
839665 842997 388
842997 846329 401
846329 849661 419
849661 852993 357
852993 856325 419
856325 859657 375
859657 862989 357
862989 866321 388
866321 869653 388
869653 872985 432
872985 876317 432
876317 879649 401
879649 882981 344
882981 886313 370
886313 889645 445
889645 892977 370
892977 896309 370
896309 899641 370
899641 902973 401
902973 906305 445
906305 909637 370
909637 912969 476
912969 916301 370
916301 919633 383
919633 922965 445
922965 926297 370
926297 929629 476
929629 932961 370
932961 936293 414
936293 939625 507
939625 942957 383
942957 946289 383
946289 949621 383
949621 952953 414
952953 956285 414
956285 959617 352
959617 962949 414
962949 966281 414
966281 969613 352
969613 972945 458
972945 976277 383
976277 979609 383
979609 982941 427
982941 986273 427
986273 989605 396
989605 992937 352
992937 996269 365
996269 999601 440
